simulation/qsim/AD_SAR.msim.vcd
$comment
	File created using the following command:
		vcd file AD_SAR.msim.vcd -direction
$end
$date
	Tue Jun 11 16:57:44 2019
$end
$version
	ModelSim Version 10.3c
$end
$timescale
	1ps
$end

$scope module AD_SAR_vlg_vec_tst $end
$var reg 1 ! clk $end
$var reg 1 " comp_in $end
$var reg 1 # reset_bar $end
$var reg 1 $ soc $end
$var wire 1 % AD_result [7] $end
$var wire 1 & AD_result [6] $end
$var wire 1 ' AD_result [5] $end
$var wire 1 ( AD_result [4] $end
$var wire 1 ) AD_result [3] $end
$var wire 1 * AD_result [2] $end
$var wire 1 + AD_result [1] $end
$var wire 1 , AD_result [0] $end
$var wire 1 - digital_in [7] $end
$var wire 1 . digital_in [6] $end
$var wire 1 / digital_in [5] $end
$var wire 1 0 digital_in [4] $end
$var wire 1 1 digital_in [3] $end
$var wire 1 2 digital_in [2] $end
$var wire 1 3 digital_in [1] $end
$var wire 1 4 digital_in [0] $end
$var wire 1 5 eoc $end
$var wire 1 6 sampler $end

$scope module i1 $end
$var wire 1 7 gnd $end
$var wire 1 8 vcc $end
$var wire 1 9 unknown $end
$var tri1 1 : devclrn $end
$var tri1 1 ; devpor $end
$var tri1 1 < devoe $end
$var wire 1 = eoc~output_o $end
$var wire 1 > AD_result[0]~output_o $end
$var wire 1 ? AD_result[1]~output_o $end
$var wire 1 @ AD_result[2]~output_o $end
$var wire 1 A AD_result[3]~output_o $end
$var wire 1 B AD_result[4]~output_o $end
$var wire 1 C AD_result[5]~output_o $end
$var wire 1 D AD_result[6]~output_o $end
$var wire 1 E AD_result[7]~output_o $end
$var wire 1 F digital_in[0]~output_o $end
$var wire 1 G digital_in[1]~output_o $end
$var wire 1 H digital_in[2]~output_o $end
$var wire 1 I digital_in[3]~output_o $end
$var wire 1 J digital_in[4]~output_o $end
$var wire 1 K digital_in[5]~output_o $end
$var wire 1 L digital_in[6]~output_o $end
$var wire 1 M digital_in[7]~output_o $end
$var wire 1 N clk~input_o $end
$var wire 1 O soc~input_o $end
$var wire 1 P casitodo|estados|state~7_combout $end
$var wire 1 Q reset_bar~input_o $end
$var wire 1 R casitodo|estados|state.initial~q $end
$var wire 1 S casitodo|estados|Selector1~0_combout $end
$var wire 1 T casitodo|estados|state.shift~q $end
$var wire 1 U casitodo|shifteo|ok~8_combout $end
$var wire 1 V casitodo|shifteo|ok~7_combout $end
$var wire 1 W casitodo|shifteo|ok[0]~1_combout $end
$var wire 1 X casitodo|shifteo|ok~6_combout $end
$var wire 1 Y casitodo|shifteo|ok~5_combout $end
$var wire 1 Z casitodo|shifteo|ok~4_combout $end
$var wire 1 [ casitodo|shifteo|ok~3_combout $end
$var wire 1 \ casitodo|shifteo|ok~2_combout $end
$var wire 1 ] casitodo|shifteo|ok~0_combout $end
$var wire 1 ^ casitodo|estados|Selector0~0_combout $end
$var wire 1 _ casitodo|estados|state.idle~q $end
$var wire 1 ` comp_in~input_o $end
$var wire 1 a casitodo|registro|ok~0_combout $end
$var wire 1 b casitodo|registro|ok~1_combout $end
$var wire 1 c casitodo|registro|ok~2_combout $end
$var wire 1 d casitodo|registro|ok~3_combout $end
$var wire 1 e casitodo|registro|ok~4_combout $end
$var wire 1 f casitodo|registro|ok~5_combout $end
$var wire 1 g casitodo|registro|ok~6_combout $end
$var wire 1 h casitodo|registro|ok~7_combout $end
$var wire 1 i casitodo|or_out [7] $end
$var wire 1 j casitodo|or_out [6] $end
$var wire 1 k casitodo|or_out [5] $end
$var wire 1 l casitodo|or_out [4] $end
$var wire 1 m casitodo|or_out [3] $end
$var wire 1 n casitodo|or_out [2] $end
$var wire 1 o casitodo|or_out [1] $end
$var wire 1 p casitodo|or_out [0] $end
$var wire 1 q casitodo|registro|ok [7] $end
$var wire 1 r casitodo|registro|ok [6] $end
$var wire 1 s casitodo|registro|ok [5] $end
$var wire 1 t casitodo|registro|ok [4] $end
$var wire 1 u casitodo|registro|ok [3] $end
$var wire 1 v casitodo|registro|ok [2] $end
$var wire 1 w casitodo|registro|ok [1] $end
$var wire 1 x casitodo|registro|ok [0] $end
$var wire 1 y casitodo|shifteo|ok [7] $end
$var wire 1 z casitodo|shifteo|ok [6] $end
$var wire 1 { casitodo|shifteo|ok [5] $end
$var wire 1 | casitodo|shifteo|ok [4] $end
$var wire 1 } casitodo|shifteo|ok [3] $end
$var wire 1 ~ casitodo|shifteo|ok [2] $end
$var wire 1 !! casitodo|shifteo|ok [1] $end
$var wire 1 "! casitodo|shifteo|ok [0] $end
$var wire 1 #! guarda|q [7] $end
$var wire 1 $! guarda|q [6] $end
$var wire 1 %! guarda|q [5] $end
$var wire 1 &! guarda|q [4] $end
$var wire 1 '! guarda|q [3] $end
$var wire 1 (! guarda|q [2] $end
$var wire 1 )! guarda|q [1] $end
$var wire 1 *! guarda|q [0] $end
$upscope $end
$upscope $end
$enddefinitions $end
#0
$dumpvars
0!
0"
1#
0$
0,
0+
0*
0)
0(
0'
0&
0%
04
03
02
01
00
0/
0.
0-
15
x6
07
18
x9
1:
1;
1<
1=
0>
0?
0@
0A
0B
0C
0D
0E
0F
0G
0H
0I
0J
0K
0L
0M
0N
0O
0P
1Q
0R
0S
0T
0U
0V
0W
0X
0Y
0Z
0[
0\
0]
0^
0_
0`
0a
0b
0c
0d
0e
0f
0g
0h
0p
0o
0n
0m
0l
0k
0j
0i
0x
0w
0v
0u
0t
0s
0r
0q
0"!
0!!
0~
0}
0|
0{
0z
0y
0*!
0)!
0(!
0'!
0&!
0%!
0$!
0#!
$end
#7500
1!
06
1N
#15000
0!
16
0N
#22500
1!
06
1N
#30000
0!
16
0N
#37500
1!
06
1N
#45000
0!
16
0N
#50000
1$
1O
06
1^
1P
#52500
1!
16
1N
1_
1R
0=
1W
05
0P
1S
#60000
0!
06
0N
#67500
1!
16
1N
1y
1T
0R
1i
1V
1M
1-
#75000
0!
06
0N
#82500
1!
16
1N
1z
0y
1j
1X
0i
0V
0M
1L
0-
1.
#90000
1"
0!
1`
06
0N
1g
#97500
1!
16
1N
1r
1{
0z
1k
1f
1Y
0X
1K
1/
#105000
0"
0!
0`
06
0N
0f
#112500
1!
16
1N
1|
0{
1l
1Z
0k
0Y
0K
1J
0/
10
#120000
1"
0!
1`
06
0N
1e
#127500
1!
16
1N
1t
1}
0|
1m
1d
1[
0Z
1I
11
#135000
0!
06
0N
#142500
1!
16
1N
1u
1~
0}
1n
1c
1\
0[
1H
12
#150000
0!
06
0N
#157500
1!
16
1N
1v
1!!
0~
1o
1b
1]
0\
1G
13
#165000
0"
0!
0`
06
0N
0b
#172500
1!
16
1N
1"!
0!!
1p
0^
0S
0o
0]
0G
1F
03
14
#180000
1"
0!
1`
06
0N
1a
#187500
1!
16
1N
1x
0_
0"!
0T
1=
0W
15
1$!
1&!
1'!
1(!
1*!
1^
1P
1>
1@
1A
1B
1D
1,
1*
1)
1(
1&
#195000
0!
06
0N
#202500
1!
16
1N
1_
1R
0=
1W
05
0P
1S
#210000
0#
0"
0!
0Q
0`
06
0N
0$!
0&!
0'!
0(!
0*!
0>
0@
0A
0B
0D
0,
0*
0)
0(
0&
0R
0_
0x
0v
0u
0t
0r
1=
0W
15
0S
1P
0p
0a
0n
0c
0m
0d
0l
0e
0j
0g
0L
0J
0I
0H
0F
0.
00
01
02
04
#217500
1!
16
1N
#225000
0!
06
0N
#232500
1!
16
1N
#240000
1#
0!
1Q
06
0N
#247500
1!
16
1N
1_
1R
0=
1W
05
0P
1S
#255000
0!
06
0N
#262500
1!
16
1N
1y
1T
0R
1i
1V
1M
1-
#270000
1"
0!
1`
06
0N
1h
#277500
1!
16
1N
1q
1z
0y
1j
1g
1X
0V
1L
1.
#285000
0!
06
0N
#292500
1!
16
1N
1r
1{
0z
1k
1f
1Y
0X
1K
1/
#300000
0"
0!
0`
06
0N
0f
#307500
1!
16
1N
1|
0{
1l
1Z
0k
0Y
0K
1J
0/
10
#310000
0$
0O
06
#315000
1"
0!
1`
16
0N
1e
#322500
1!
06
1N
1t
1}
0|
1m
1d
1[
0Z
1I
11
#330000
0"
0!
0`
16
0N
0d
#337500
1!
06
1N
1~
0}
1n
1\
0m
0[
0I
1H
01
12
#345000
1"
0!
1`
16
0N
1c
#352500
1!
06
1N
1v
1!!
0~
1o
1b
1]
0\
1G
13
#360000
0!
16
0N
#367500
1!
06
1N
1w
1"!
0!!
1p
1a
0^
0S
0]
1F
14
#370000
0#
0Q
16
0T
0"!
0_
0w
0v
0t
0r
0q
1=
0W
15
0h
0g
0e
0c
0b
0a
0p
0o
0n
0l
0j
0i
0M
0L
0J
0H
0G
0F
0-
0.
00
02
03
04
#375000
0!
06
0N
#380000
1#
1Q
16
#382500
1!
06
1N
#390000
0!
16
0N
#397500
1!
06
1N
#405000
0"
0!
0`
16
0N
#412500
1!
06
1N
#420000
0!
16
0N
#427500
1!
06
1N
#435000
1"
0!
1`
16
0N
#442500
1!
06
1N
#450000
0"
0!
0`
16
0N
#457500
1!
06
1N
#460000
1$
1O
16
1^
1P
#465000
0!
06
0N
#472500
1!
16
1N
1_
1R
0=
1W
05
0P
1S
#480000
0!
06
0N
#487500
1!
16
1N
1y
1T
0R
1i
1V
1M
1-
#495000
0!
06
0N
#502500
1!
16
1N
1z
0y
1j
1X
0i
0V
0M
1L
0-
1.
#510000
0!
06
0N
#517500
1!
16
1N
1{
0z
1k
1Y
0j
0X
0L
1K
0.
1/
#525000
1"
0!
1`
06
0N
1f
#532500
1!
16
1N
1s
1|
0{
1l
1e
1Z
0Y
1J
10
#540000
0"
0!
0`
06
0N
0e
#547500
1!
16
1N
1}
0|
1m
1[
0l
0Z
0J
1I
00
11
#555000
0!
06
0N
#562500
1!
16
1N
1~
0}
1n
1\
0m
0[
0I
1H
01
12
#570000
1"
0!
1`
06
0N
1c
#577500
1!
16
1N
1v
1!!
0~
1o
1b
1]
0\
1G
13
#585000
0"
0!
0`
06
0N
0b
#590000
0$
0O
16
#592500
1!
06
1N
1"!
0!!
1p
0^
0S
0o
0]
0G
1F
03
14
#600000
1"
0!
1`
16
0N
1a
#607500
1!
06
1N
1x
0_
0"!
0T
1=
0W
15
1%!
1(!
1*!
1>
1@
1C
1,
1*
1'
#615000
0!
16
0N
#622500
1!
06
1N
#630000
0"
0!
0`
16
0N
#637500
1!
06
1N
#645000
0!
16
0N
#652500
1!
06
1N
#660000
0!
16
0N
#667500
1!
06
1N
#675000
0!
16
0N
#682500
1!
06
1N
#690000
1"
0!
1`
16
0N
#697500
1!
06
1N
#705000
0"
0!
0`
16
0N
#712500
1!
06
1N
#720000
0!
16
0N
#727500
1!
06
1N
#735000
0!
16
0N
#742500
1!
06
1N
#750000
0!
16
0N
#757500
1!
06
1N
#765000
1"
0!
1`
16
0N
#772500
1!
06
1N
#780000
0"
0!
0`
16
0N
#787500
1!
06
1N
#795000
1"
0!
1`
16
0N
#802500
1!
06
1N
#810000
0"
0!
0`
16
0N
#817500
1!
06
1N
#825000
0!
16
0N
#832500
1!
06
1N
#840000
1"
0!
1`
16
0N
#847500
1!
06
1N
#855000
0!
16
0N
#862500
1!
06
1N
#870000
0!
16
0N
#877500
1!
06
1N
#885000
0!
16
0N
#892500
1!
06
1N
#900000
0!
16
0N
#907500
1!
06
1N
#915000
0!
16
0N
#922500
1!
06
1N
#930000
0"
0!
0`
16
0N
#937500
1!
06
1N
#945000
0!
16
0N
#952500
1!
06
1N
#960000
0!
16
0N
#967500
1!
06
1N
#975000
1"
0!
1`
16
0N
#982500
1!
06
1N
#990000
0!
16
0N
#997500
1!
06
1N
